{
  "type": "service_account",
  "project_id": "sfhacks-2019",
  "private_key_id": "aa1a2b15c8cb6ea54980b7a169660dbc0deb13f8",
  "private_key": "-----BEGIN PRIVATE KEY-----\nMIIEvAIBADANBgkqhkiG9w0BAQEFAASCBKYwggSiAgEAAoIBAQCgNykDRCDMjOHP\niPRYeaMh7HKgYOHOkKqpuUWH7geEKXaM4f2ulcjExYfhd+HsXW2JazcWRicWbsXv\n2YjKSQ1y3LVd1XoTDnePTF67LPzD0GjrONQmKBH55xiwxLlUdxeGX+0tjsi3qGsF\n/wSK1CW8Mfn2+jth9Fbq4mS+vm9q3Q6Om1Q5hOlTBQtR4oFydw7Hbss13aZphpmB\n0EtrabB47Aa6QKMVIZ/laNR6ryDnITHk27rjBO1wNaVeJWt+bTXJaPhVnB8ffSes\n7BO2aAiM1GfTrPy8T2i+tQYQF33reRWgWJ0qdIgaPl9xIf3Ta/zvChK6DkHEPlsW\nfQUtaAjFAgMBAAECggEASyOTiISbHVO1U6/XaOcjKvXJjI3jWQ1f/Nl3Upi/zavk\nfY4/e3GkByTc5VFkE4Z9qMUvwLKGAm9RRXuwO66nMAdyx98msWlHiV030HD42p0T\nl72/QWXpiFppqf2ZLZPs5Ih4o7UjTX8fMmC3sKRuTiTiJoKU9wuw99fVh9+oQWVM\npYK+VuEk12xHembMNYHG+lznYsiwT8ElYGrhB1N8BTdzt9iJDrOm78x/eIuIG3Ae\npaIuZh6m8QKvD7wJ4ytdBVcu24y0MtHZ/3OIOjOPQxfw2UxTN60uwG/qE7dr2EQW\n2eczNFSXJPKCl2FVLpHBz74qY33lhJ5pxsqSJ3LiwQKBgQDbwq+pZOyFvBXzmf5j\n/POMJRZE8+KsbP548qfIDh9T/LXkS1vQtTV0snBZCfUjcEvpT0Kl4P0edkVMaS2w\nafOL2xxIrrb8+DEiIoV8bNaTJ9NHXEI+Bad+hULo36+NDh+nAGJYEokFXTPBBCv2\n90IOSje4l0euxS3Gcf6rd0bU1wKBgQC6or9CI1vKIacBinZiQQZFf4gVyRwAC9hP\nMEWvlvTHKDnsu9F9sRuQUVOB7aLuFK6vrscoZTQTnCyVCe5SeXIQ8CFXJFVX/wA4\nkeJURkWNdbxUbdhzQLbJdheKTU/S4gOeFWI83kj3ZfCR0QJy8Bh4sVlDmbYbkifI\nLB65xyU/wwKBgDiu1rBSn88+3EqhBcS0kf0r87qFTYo78scvj6dCPUJkhGYGKgCD\nPO6EuAW/U8N4S5w6HW67wY4B44358xb1vSPtuDXnGrvVKJctYFDfodkDBLP7T/q/\napxvsvpt99HiOrfQmY0t+rmveJHoiY6B6D/XVNf/7TVfFpeA/7cqZNKxAoGACfnO\n/UsEif5YfeWXxFKzch2J+ZghTgNUEY+D+gm4lbiZuASmAvDnh0RBkW1RSyaB29Qc\nwxT9vpqXa3P3cCMbrLoZHh5MDYMM0PlDPrvu1cvYQC8K5cYsvwH36iWNwbjg9p8v\n/A7pmYeyXyjr15brx++61LkvmbOrOrDZB5cUb58CgYANKfbRwtL07RUmTgBJI6wt\n+7AhbiwsFdO7SWROltPWFJDu7+41USx6zVFvjDKgm3qMvLkfXe3HIQDLLHmqZcmw\nsqUC+zhUIBBpeI5h4U3PiIJdfSGOAqixEZWFc6yCkjNybcX/b+/duKXrnlr1rLS8\ntD06/X5DJAHdB5boUP7EuA==\n-----END PRIVATE KEY-----\n",
  "client_email": "sfhacks@sfhacks-2019.iam.gserviceaccount.com",
  "client_id": "114332611524904597282",
  "auth_uri": "https://accounts.google.com/o/oauth2/auth",
  "token_uri": "https://oauth2.googleapis.com/token",
  "auth_provider_x509_cert_url": "https://www.googleapis.com/oauth2/v1/certs",
  "client_x509_cert_url": "https://www.googleapis.com/robot/v1/metadata/x509/sfhacks%40sfhacks-2019.iam.gserviceaccount.com"
}
